0.40089187026023865 0.5773502588272095 -0.07715165615081787
-0.40089187026023865 0.5773502588272095 -0.07715165615081787
-0.40089187026023865 -0.5773502588272095 0.07715165615081787
0.40089187026023865 -0.5773502588272095 0.07715165615081787
-0.13363060355186462 0.5773502588272095 0.38575834035873413
0.13363060355186462 0.5773502588272095 0.38575834035873413
0.13363060355186462 -0.5773502588272095 -0.38575834035873413
-0.13363060355186462 -0.5773502588272095 -0.38575834035873413
-0.26726120710372925 0.5773502588272095 -0.30860668420791626
0.26726120710372925 0.5773502588272095 -0.30860668420791626
0.26726120710372925 -0.5773502588272095 0.30860668420791626
-0.26726120710372925 -0.5773502588272095 0.30860668420791626
0.13363060355186462 -2.9802322387695312e-08 0.6943650245666504
-0.13363060355186462 -2.9802322387695312e-08 0.6943650245666504
-0.13363060355186462 2.9802322387695312e-08 -0.6943650245666504
0.13363060355186462 2.9802322387695312e-08 -0.6943650245666504
0.6681530475616455 -2.9802322387695312e-08 0.2314550131559372
-0.6681530475616455 -2.9802322387695312e-08 0.2314550131559372
-0.6681530475616455 2.9802322387695312e-08 -0.2314550131559372
0.6681530475616455 2.9802322387695312e-08 -0.2314550131559372
-0.5345224738121033 0.0 0.462909996509552
0.5345224738121033 0.0 0.462909996509552
0.5345224738121033 0.0 -0.462909996509552
-0.5345224738121033 0.0 -0.462909996509552